{
    "key": "group_6092b6448c2e1",
    "title": "Sidebar Modules",
    "fields": [
        {
            "key": "field_6092b6513e0d9",
            "label": "Modules",
            "name": "modules",
            "type": "flexible_content",
            "instructions": "",
            "required": 0,
            "conditional_logic": 0,
            "wrapper": {
                "width": "",
                "class": "",
                "id": ""
            },
            "layouts": {
                "layout_6092b73cec8fb": {
                    "key": "layout_6092b73cec8fb",
                    "name": "related_post_type",
                    "label": "Related Post Type",
                    "display": "block",
                    "sub_fields": [
                        {
                            "key": "field_6092b7593e0dd",
                            "label": "Post Type",
                            "name": "post_type",
                            "type": "posttype_select",
                            "instructions": "Choose which related post types to display. These correspond to the related post types selected in this posts settings.",
                            "required": 0,
                            "conditional_logic": 0,
                            "wrapper": {
                                "width": "",
                                "class": "",
                                "id": ""
                            },
                            "default_value": "",
                            "allow_null": 0,
                            "multiple": 0,
                            "placeholder": "",
                            "disabled": 0,
                            "readonly": 0
                        }
                    ],
                    "min": "",
                    "max": ""
                },
                "layout_6092b7833e0de": {
                    "key": "layout_6092b7833e0de",
                    "name": "related_taxonomy",
                    "label": "Related Taxonomy",
                    "display": "block",
                    "sub_fields": [
                        {
                            "key": "field_6092b7893e0df",
                            "label": "Taxonomy",
                            "name": "taxonomy",
                            "type": "taxtype_select",
                            "instructions": "Choose which related taxonomies to display. These correspond to the related taxonomies (ie. market type) selected in this posts settings.",
                            "required": 0,
                            "conditional_logic": 0,
                            "wrapper": {
                                "width": "",
                                "class": "",
                                "id": ""
                            },
                            "default_value": "",
                            "allow_null": 0,
                            "multiple": 0,
                            "placeholder": "",
                            "disabled": 0,
                            "readonly": 0
                        }
                    ],
                    "min": "",
                    "max": ""
                },
                "layout_6092b8023e0e0": {
                    "key": "layout_6092b8023e0e0",
                    "name": "image",
                    "label": "Image",
                    "display": "block",
                    "sub_fields": [
                        {
                            "key": "field_6092b8163e0e2",
                            "label": "Title",
                            "name": "title",
                            "type": "text",
                            "instructions": "Title to display above the image",
                            "required": 0,
                            "conditional_logic": 0,
                            "wrapper": {
                                "width": "",
                                "class": "",
                                "id": ""
                            },
                            "default_value": "",
                            "placeholder": "",
                            "prepend": "",
                            "append": "",
                            "maxlength": ""
                        },
                        {
                            "key": "field_6092b80c3e0e1",
                            "label": "Image",
                            "name": "image",
                            "type": "image",
                            "instructions": "",
                            "required": 0,
                            "conditional_logic": 0,
                            "wrapper": {
                                "width": "",
                                "class": "",
                                "id": ""
                            },
                            "return_format": "array",
                            "preview_size": "medium",
                            "library": "all",
                            "min_width": "",
                            "min_height": "",
                            "min_size": "",
                            "max_width": "",
                            "max_height": "",
                            "max_size": "",
                            "mime_types": ""
                        }
                    ],
                    "min": "",
                    "max": ""
                },
                "layout_6092b8343e0e3": {
                    "key": "layout_6092b8343e0e3",
                    "name": "html",
                    "label": "HTML",
                    "display": "block",
                    "sub_fields": [
                        {
                            "key": "field_6092b8453e0e4",
                            "label": "HTML",
                            "name": "html",
                            "type": "textarea",
                            "instructions": "",
                            "required": 0,
                            "conditional_logic": 0,
                            "wrapper": {
                                "width": "",
                                "class": "",
                                "id": ""
                            },
                            "default_value": "",
                            "placeholder": "",
                            "maxlength": "",
                            "rows": 4,
                            "new_lines": ""
                        }
                    ],
                    "min": "",
                    "max": ""
                },
                "layout_6092b9ca74810": {
                    "key": "layout_6092b9ca74810",
                    "name": "embedded_content",
                    "label": "Embedded Content",
                    "display": "block",
                    "sub_fields": [
                        {
                            "key": "field_6092b9d474811",
                            "label": "Embed",
                            "name": "embed",
                            "type": "oembed",
                            "instructions": "",
                            "required": 0,
                            "conditional_logic": 0,
                            "wrapper": {
                                "width": "",
                                "class": "",
                                "id": ""
                            },
                            "width": "",
                            "height": ""
                        }
                    ],
                    "min": "",
                    "max": ""
                }
            },
            "button_label": "Add Module",
            "min": "",
            "max": ""
        }
    ],
    "location": [
        [
            {
                "param": "taxonomy",
                "operator": "==",
                "value": "all"
            }
        ]
    ],
    "menu_order": 12,
    "position": "normal",
    "style": "default",
    "label_placement": "top",
    "instruction_placement": "label",
    "hide_on_screen": "",
    "active": true,
    "description": "",
    "modified": 1620239528
}