{
    "key": "group_5be95f11d8721",
    "title": "Technology Type Fields",
    "fields": [
        {
            "key": "field_5be95f1860946",
            "label": "Related Technologies",
            "name": "related_technologies",
            "type": "relationship",
            "instructions": "Only use this section when you need to manually override the technologies related to this technology type",
            "required": 0,
            "conditional_logic": 0,
            "wrapper": {
                "width": "",
                "class": "",
                "id": ""
            },
            "post_type": [
                "technology"
            ],
            "taxonomy": [],
            "min": "",
            "max": "",
            "filters": [
                "search",
                "post_type",
                "taxonomy"
            ],
            "elements": [
                "featured_image"
            ],
            "return_format": "object"
        },
        {
            "key": "field_609d98a918ce4",
            "label": "Custom Related Technologies",
            "name": "custom_related_technologies",
            "type": "repeater",
            "instructions": "",
            "required": 0,
            "conditional_logic": 0,
            "wrapper": {
                "width": "",
                "class": "",
                "id": ""
            },
            "collapsed": "field_609d98c118ce5",
            "min": 0,
            "max": 0,
            "layout": "block",
            "button_label": "Add Custom Related Technology",
            "sub_fields": [
                {
                    "key": "field_609d98c118ce5",
                    "label": "Link",
                    "name": "link",
                    "type": "link",
                    "instructions": "Add title and URL. Title is used for the title of the block",
                    "required": 0,
                    "conditional_logic": 0,
                    "wrapper": {
                        "width": "",
                        "class": "",
                        "id": ""
                    },
                    "return_format": "array"
                },
                {
                    "key": "field_609d98d418ce6",
                    "label": "Image",
                    "name": "image",
                    "type": "image",
                    "instructions": "",
                    "required": 0,
                    "conditional_logic": 0,
                    "wrapper": {
                        "width": "",
                        "class": "",
                        "id": ""
                    },
                    "return_format": "array",
                    "preview_size": "medium",
                    "library": "all",
                    "min_width": "",
                    "min_height": "",
                    "min_size": "",
                    "max_width": "",
                    "max_height": "",
                    "max_size": "",
                    "mime_types": ""
                }
            ]
        },
        {
            "key": "field_5ce41668071d3",
            "label": "By The Numbers",
            "name": "by_the_numbers",
            "type": "repeater",
            "instructions": "",
            "required": 0,
            "conditional_logic": 0,
            "wrapper": {
                "width": "",
                "class": "",
                "id": ""
            },
            "collapsed": "",
            "min": 0,
            "max": 0,
            "layout": "row",
            "button_label": "Add Number Row",
            "sub_fields": [
                {
                    "key": "field_5ce4167f071d4",
                    "label": "Number",
                    "name": "number",
                    "type": "text",
                    "instructions": "",
                    "required": 0,
                    "conditional_logic": 0,
                    "wrapper": {
                        "width": "",
                        "class": "",
                        "id": ""
                    },
                    "default_value": "",
                    "placeholder": "",
                    "prepend": "",
                    "append": "",
                    "maxlength": ""
                },
                {
                    "key": "field_5ce41691071d5",
                    "label": "Description",
                    "name": "description",
                    "type": "text",
                    "instructions": "",
                    "required": 0,
                    "conditional_logic": 0,
                    "wrapper": {
                        "width": "",
                        "class": "",
                        "id": ""
                    },
                    "default_value": "",
                    "placeholder": "",
                    "prepend": "",
                    "append": "",
                    "maxlength": ""
                }
            ]
        },
        {
            "key": "field_5be95f5860947",
            "label": "Related Technology Group",
            "name": "related_technology_group",
            "type": "repeater",
            "instructions": "",
            "required": 0,
            "conditional_logic": 0,
            "wrapper": {
                "width": "",
                "class": "",
                "id": ""
            },
            "min": 0,
            "max": 0,
            "layout": "block",
            "button_label": "Add Technology Group",
            "collapsed": "field_5be95f6660948",
            "sub_fields": [
                {
                    "key": "field_5be95f6660948",
                    "label": "Technology Group Name",
                    "name": "technology_group_name",
                    "type": "text",
                    "instructions": "",
                    "required": 0,
                    "conditional_logic": 0,
                    "wrapper": {
                        "width": "",
                        "class": "",
                        "id": ""
                    },
                    "default_value": "",
                    "maxlength": "",
                    "placeholder": "",
                    "prepend": "",
                    "append": ""
                },
                {
                    "key": "field_5be95f9160949",
                    "label": "Related Technologies",
                    "name": "related_technologies",
                    "type": "relationship",
                    "instructions": "",
                    "required": 0,
                    "conditional_logic": 0,
                    "wrapper": {
                        "width": "",
                        "class": "",
                        "id": ""
                    },
                    "post_type": [
                        "technology"
                    ],
                    "taxonomy": [],
                    "min": "",
                    "max": "",
                    "filters": [
                        "search",
                        "post_type",
                        "taxonomy"
                    ],
                    "elements": [
                        "featured_image"
                    ],
                    "return_format": "object"
                }
            ]
        },
        {
            "key": "field_5bf2f5bad03fc",
            "label": "Related Resources",
            "name": "resource_x_technology-type",
            "type": "relationship",
            "instructions": "",
            "required": 0,
            "conditional_logic": 0,
            "wrapper": {
                "width": "",
                "class": "",
                "id": ""
            },
            "post_type": [
                "resource"
            ],
            "taxonomy": "",
            "filters": [
                "search",
                "post_type",
                "taxonomy"
            ],
            "elements": "",
            "min": "",
            "max": "",
            "return_format": "id"
        }
    ],
    "location": [
        [
            {
                "param": "taxonomy",
                "operator": "==",
                "value": "technology-type"
            }
        ]
    ],
    "menu_order": 2,
    "position": "normal",
    "style": "seamless",
    "label_placement": "top",
    "instruction_placement": "label",
    "hide_on_screen": "",
    "active": true,
    "description": "",
    "modified": 1620941172
}