<?xml version="1.0" encoding="UTF-8"?>
<svg width="12px" height="12px" viewBox="0 0 16 16" version="1.1" xmlns="http://www.w3.org/2000/svg" xmlns:xlink="http://www.w3.org/1999/xlink">
    <!-- Generator: Sketch 51.3 (57544) - http://www.bohemiancoding.com/sketch -->
    <title>arrow_down [#360]</title>
    <desc>Created with Sketch.</desc>
    <defs></defs>
    <g id="Symbols" stroke="none" stroke-width="1" fill="none" fill-rule="evenodd">
        <g id="Elements/SECFilingTab" transform="translate(-649.000000, -33.000000)" fill="#3E3E3E">
            <path d="M664.765805,40.7578912 C664.453546,40.4448212 663.948021,40.4448212 663.63656,40.7578912 L658.486277,45.9143386 C658.234712,46.1665562 657.798667,45.9880022 657.798667,45.6316948 L657.798667,33.7870789 C657.798667,33.3450976 657.447276,33 657.006439,33 C656.562408,33 656.201433,33.3450976 656.201433,33.7870789 L656.201433,45.6316948 C656.201433,45.9880022 655.777367,46.1665562 655.525802,45.9143386 L650.360345,40.7330698 C650.048884,40.4199997 649.544957,40.4199997 649.232697,40.7330698 C648.922035,41.0453391 648.922035,41.5521763 649.234294,41.8652463 L655.882784,48.5309955 C656.506504,49.1563348 657.518353,49.1563348 658.142073,48.5309955 C658.285824,48.3860705 664.910355,41.7451427 664.765805,41.8900677 C665.078065,41.5769977 665.078065,41.0701605 664.765805,40.7578912 Z" id="arrow_down-[#360]"></path>
        </g>
    </g>
</svg>
