<?xml version="1.0" encoding="UTF-8"?>
<svg width="12px" height="12px" viewBox="0 0 12 12" version="1.1" xmlns="http://www.w3.org/2000/svg" xmlns:xlink="http://www.w3.org/1999/xlink">
    <!-- Generator: Sketch 55.2 (78181) - https://sketchapp.com -->
    <title>down-arrow</title>
    <desc>Created with Sketch.</desc>
    <g id="Page-1" stroke="none" stroke-width="1" fill="none" fill-rule="evenodd">
        <g id="down-arrow" transform="translate(6.000000, 6.000000) rotate(-90.000000) translate(-6.000000, -6.000000) " fill="#3E3E3E" fill-rule="nonzero">
            <path d="M11.8243538,5.8184184 C11.5901595,5.5836159 11.2110158,5.5836159 10.97742,5.8184184 L7.11470775,9.68575395 C6.926034,9.87491715 6.59900025,9.74100165 6.59900025,9.4737711 L6.59900025,0.590309175 C6.59900025,0.2588232 6.335457,0 6.00482925,0 C5.671806,0 5.40107475,0.2588232 5.40107475,0.590309175 L5.40107475,9.4737711 C5.40107475,9.74100165 5.08302525,9.87491715 4.8943515,9.68575395 L1.02025875,5.79980235 C0.786663,5.56499977 0.40871775,5.56499977 0.17452275,5.79980235 C-0.05847375,6.03400432 -0.05847375,6.41413222 0.1757205,6.64893473 L5.162088,11.6482466 C5.629878,12.1172511 6.38876475,12.1172511 6.85655475,11.6482466 C6.964368,11.5395529 11.9327662,6.55885703 11.8243538,6.66755078 C12.0585488,6.43274828 12.0585488,6.05262038 11.8243538,5.8184184 Z" id="arrow_down-[#360]"></path>
        </g>
    </g>
</svg>